<?xml version="1.0" standalone="no"?>
<!DOCTYPE svg PUBLIC "-//W3C//DTD SVG 20010904//EN"
 "http://www.w3.org/TR/2001/REC-SVG-20010904/DTD/svg10.dtd">
<svg version="1.0" xmlns="http://www.w3.org/2000/svg"
 width="638.000000pt" height="638.000000pt" viewBox="0 0 638.000000 638.000000"
 preserveAspectRatio="xMidYMid meet">
<metadata>
Created by potrace 1.14, written by Peter Selinger 2001-2017
</metadata>
<g transform="translate(0.000000,638.000000) scale(0.100000,-0.100000)"
fill="#000000" stroke="none">
<path d="M2940 6373 c-307 -28 -599 -93 -869 -194 -863 -324 -1551 -1014
-1874 -1879 -34 -91 -101 -307 -111 -360 -3 -14 -14 -70 -25 -125 -24 -121
-29 -156 -46 -305 -15 -128 -18 -512 -5 -605 4 -33 11 -80 13 -105 14 -122 53
-325 83 -430 8 -30 21 -77 29 -105 61 -218 201 -527 340 -750 63 -100 167
-251 212 -306 369 -451 815 -783 1335 -990 171 -68 426 -141 598 -170 234 -40
292 -44 590 -43 233 0 297 4 415 22 193 31 186 29 320 62 410 98 798 280 1130
528 178 134 226 175 359 307 154 153 240 254 352 410 102 142 224 347 274 460
12 28 34 77 50 110 32 72 126 320 134 355 3 14 22 88 41 165 76 301 94 468 89
800 -2 138 -5 261 -8 275 -2 14 -7 48 -10 75 -4 28 -9 61 -11 75 -2 14 -6 48
-10 75 -16 135 -87 396 -157 585 -249 670 -729 1244 -1354 1621 -395 238 -873
395 -1334 438 -90 8 -474 11 -550 4z"/>
</g>
</svg>
